Pràctica 2
…
4.3. Aplicació de proves estadístiques per comparar els grups de dades. En funció de les dades i de l’objectiu de l’estudi, aplicar proves de contrast d’hipòtesis, correlacions, regressions, etc. Aplicar almenys tres mètodes d’anàlisi diferents.

Correlacions

set.seed(123)

cor(df) %>%
  as.data.frame() %>%
  mutate(var1 = rownames(.)) %>%
  gather(var2, value, -var1) %>%
  arrange(desc(value)) %>%
  group_by(value) %>%
  filter(row_number()==1)

## # A tibble: 79 x 3
## # Groups:   value [79]
##    var1                 var2                value
##    <chr>                <chr>               <dbl>
##  1 fixed.acidity        fixed.acidity       1    
##  2 qualitat_excellent   quality             0.711
##  3 citric.acid          fixed.acidity       0.674
##  4 density              fixed.acidity       0.674
##  5 total.sulfur.dioxide free.sulfur.dioxide 0.667
##  6 quality              alcohol             0.483
##  7 qualitat_excellent   alcohol             0.411
##  8 density              citric.acid         0.371
##  9 density              residual.sugar      0.367
## 10 sulphates            chlorides           0.326
## # ... with 69 more rows
…
